…
# Filter with NY county FIPS
core_2015_nyfips <- core_2015 %>% 
  dplyr::filter(FIPS %in% ny_countyfips)

print(as_tibble(core_2015_nyfips))
#> # A tibble: 11,788 × 170
#>    NTEECC new.code   type.org broad.category major.group univ  hosp  two.digit
#>    <chr>  <chr>      <chr>    <chr>          <chr>       <lgl> <lgl> <chr>    
#>  1 N50    RG-HMS-N50 RG       HMS            N           FALSE FALSE 50       
#>  2 Y42    RG-MMB-Y42 RG       MMB            Y           FALSE FALSE 42       
#>  3 P012   <NA>       <NA>     <NA>           <NA>        NA    NA    <NA>     
#>  4 S47    RG-PSB-S47 RG       PSB            S           FALSE FALSE 47       
#>  5 N50    RG-HMS-N50 RG       HMS            N           FALSE FALSE 50       
#>  6 S41    RG-PSB-S41 RG       PSB            S           FALSE FALSE 41       
#>  7 J40    RG-HMS-J40 RG       HMS            J           FALSE FALSE 40       
#>  8 J40    RG-HMS-J40 RG       HMS            J           FALSE FALSE 40       
#>  9 B41    RG-UNI-B41 RG       UNI            B           TRUE  FALSE 41       
#> 10 M24    RG-HMS-M24 RG       HMS            M           FALSE FALSE 24       
#> # ℹ 11,778 more rows
#> # ℹ 162 more variables: further.category <int>, division.subdivision <chr>,
#> #   broad.category.description <chr>, major.group.description <chr>,
#> #   code.name <chr>, division.subdivision.description <chr>, keywords <chr>,
#> #   further.category.desciption <chr>, ntee2.code <chr>, EIN <int>,
#> #   ACCPER <chr>, ACTIV1 <chr>, ACTIV2 <chr>, ACTIV3 <chr>, ADDRESS <chr>,
#> #   AFCD <chr>, ASS_BOY <dbl>, ASS_EOY <int64>, BLOCK <chr>, BOND_BOY <dbl>, …
```
…
