…
``` r
core_2005_nonprofit_pz <- get_data(dsname = "core",
                                   time = "2005",
                                   scope.orgtype = "NONPROFIT",
                                   scope.formtype = "PZ")
#> Requested files have a total size of 82.6 MB. Proceed
#>                       with download? Enter Y/N (Yes/no/cancel)


tibble::as_tibble(core_2005_nonprofit_pz)
#> # A tibble: 157,211 × 150
#>    NTEECC new.code   type.org broad.category major.group univ  hosp  two.digit
#>    <chr>  <chr>      <chr>    <chr>          <chr>       <lgl> <lgl> <chr>    
#>  1 J40    RG-HMS-J40 RG       HMS            J           FALSE FALSE 40       
#>  2 W30    RG-PSB-W30 RG       PSB            W           FALSE FALSE 30       
#>  3 W30    RG-PSB-W30 RG       PSB            W           FALSE FALSE 30       
#>  4 W30    RG-PSB-W30 RG       PSB            W           FALSE FALSE 30       
#>  5 W30    RG-PSB-W30 RG       PSB            W           FALSE FALSE 30       
#>  6 Y42    RG-MMB-Y42 RG       MMB            Y           FALSE FALSE 42       
#>  7 S41    RG-PSB-S41 RG       PSB            S           FALSE FALSE 41       
#>  8 N60    RG-HMS-N60 RG       HMS            N           FALSE FALSE 60       
#>  9 S41    RG-PSB-S41 RG       PSB            S           FALSE FALSE 41       
#> 10 S41    RG-PSB-S41 RG       PSB            S           FALSE FALSE 41       
#> # ℹ 157,201 more rows
#> # ℹ 142 more variables: further.category <int>, division.subdivision <chr>,
#> #   broad.category.description <chr>, major.group.description <chr>,
#> #   code.name <chr>, division.subdivision.description <chr>, keywords <chr>,
#> #   further.category.desciption <chr>, ntee2.code <chr>, EIN <chr>,
#> #   TAXPER <int>, STYEAR <int>, CONT <int>, DUES <int>, SECUR <int64>,
#> #   SALESEXP <int64>, INVINC <int>, SOLICIT <int>, GOODS <int>, GRPROF <int>, …
```

``` r
core_2005_artnonprofits_newyork <- get_data(dsname = "core",
                                            time = "2016",
                                            scope.orgtype = "NONPROFIT",
                                            scope.formtype = "PZ",
                                            ntee = "ART",
                                            geo.state = "NY")
#> Requested files have a total size of 113.6 MB. Proceed
#>                       with download? Enter Y/N (Yes/no/cancel)
tibble::as_tibble(core_2005_artnonprofits_newyork)
#> # A tibble: 346 × 168
#>    NTEECC new.code   type.org broad.category major.group univ  hosp  two.digit
#>    <chr>  <chr>      <chr>    <chr>          <chr>       <lgl> <lgl> <chr>    
#>  1 A01    AA-ART-A00 AA       ART            A           FALSE FALSE 1        
#>  2 A01    AA-ART-A00 AA       ART            A           FALSE FALSE 1        
#>  3 A03    PA-ART-A00 PA       ART            A           FALSE FALSE 3        
#>  4 A03    PA-ART-A00 PA       ART            A           FALSE FALSE 3        
#>  5 A03    PA-ART-A00 PA       ART            A           FALSE FALSE 3        
#>  6 A03    PA-ART-A00 PA       ART            A           FALSE FALSE 3        
#>  7 A03    PA-ART-A00 PA       ART            A           FALSE FALSE 3        
#>  8 A03    PA-ART-A00 PA       ART            A           FALSE FALSE 3        
#>  9 A03    PA-ART-A00 PA       ART            A           FALSE FALSE 3        
#> 10 A03    PA-ART-A00 PA       ART            A           FALSE FALSE 3        
#> # ℹ 336 more rows
#> # ℹ 160 more variables: further.category <int>, division.subdivision <chr>,
#> #   broad.category.description <chr>, major.group.description <chr>,
#> #   code.name <chr>, division.subdivision.description <chr>, keywords <chr>,
#> #   further.category.desciption <chr>, ntee2.code <chr>, EIN <int>,
#> #   ACCPER <int>, ACTIV1 <dbl>, ACTIV2 <dbl>, ACTIV3 <dbl>, ADDRESS <chr>,
#> #   AFCD <dbl>, ASS_BOY <dbl>, ASS_EOY <dbl>, BOND_BOY <dbl>, BOND_EOY <dbl>, …
```
…
