…
``` r
preview_sample(data = core,
              group_by = c("NTEECC", "STATE"),
              var = c("TOTREV"),
              stats = c("count", "mean", "max"))
#> Valid summary fields entered.
#> # A tibble: 13,091 × 5
#> # Groups:   NTEECC [937]
#>    NTEECC STATE count    mean       max
#>    <chr>  <chr> <int> <int64>   <int64>
#>  1 ""     ""      406 1769225 375740413
#>  2 "A01"  "AZ"      2   41647     73295
#>  3 "A01"  "CA"     13 1052177   9241479
#>  4 "A01"  "CO"      2  268455    319830
#>  5 "A01"  "CT"      2  228350    415503
#>  6 "A01"  "DC"      5  446664   1117827
#>  7 "A01"  "DE"      1  268308    268308
#>  8 "A01"  "FL"      2 1181261   1713932
#>  9 "A01"  "GA"      3   64731    109254
#> 10 "A01"  "HI"      3   15371     29528
#> # ℹ 13,081 more rows
```
…
